[gd_scene load_steps=12 format=3 uid="uid://dnlk51kw40y63"]

[ext_resource type="Script" path="res://Player/Player.cs" id="1_2t6uy"]
[ext_resource type="Resource" uid="uid://b713pk4qpxxhn" path="res://Player/MovementState/run.tres" id="2_14ob0"]
[ext_resource type="Resource" uid="uid://dm4vjvn52xuh0" path="res://Player/MovementState/sprint.tres" id="3_j8of3"]
[ext_resource type="Resource" uid="uid://crvcw0lg50jye" path="res://Player/MovementState/stand.tres" id="4_t8b6l"]
[ext_resource type="Resource" uid="uid://hemr4pua4o48" path="res://Player/MovementState/walk.tres" id="5_l0h7h"]
[ext_resource type="Script" path="res://Player/MovementController.cs" id="5_yxug4"]
[ext_resource type="Script" path="res://Player/CameraController.cs" id="6_fv7gu"]
[ext_resource type="Resource" uid="uid://cxqdrt18lk8ev" path="res://Player/JumpStates/air_jump.tres" id="6_v7q6c"]
[ext_resource type="Resource" uid="uid://vwnrbqdvb0ti" path="res://Player/JumpStates/ground_jump.tres" id="7_otcmq"]

[sub_resource type="CapsuleMesh" id="CapsuleMesh_aknpw"]

[sub_resource type="ConvexPolygonShape3D" id="ConvexPolygonShape3D_w11nt"]
points = PackedVector3Array(-0.125207, -0.532801, -0.480507, 0.0227831, 0.47607, 0.498884, 0.169713, 0.559144, 0.464172, 0.231051, -0.803591, 0.320455, 0.40741, 0.651043, -0.243523, -0.482789, 0.594843, 0.0822132, -0.362868, -0.682312, 0.289697, 0.469044, -0.654529, -0.0662713, -0.127444, 0.842701, -0.338103, -0.393435, -0.683942, -0.244717, 0.438255, 0.623309, 0.200849, 0.0841477, 0.977454, 0.114795, -0.0682023, -0.976458, -0.12927, 0.20055, -0.563129, -0.451454, -0.185527, 0.595453, -0.453475, -0.273363, 0.592268, 0.407754, -0.00693649, -0.476823, 0.49966, 0.375821, -0.588614, 0.316955, 0.111579, 0.563059, -0.481177, -0.41725, 0.527866, -0.270497, -0.484546, -0.596972, -0.0665097, -0.279747, 0.908561, 0.0533361, -0.250197, -0.880712, 0.205319, 0.263647, -0.902771, -0.127394, 0.293368, 0.871526, -0.157196, 0.373412, -0.526319, -0.328246, 0.499663, 0.476641, -0.00688856, 0.0531056, 0.875001, 0.324703, -0.154543, -0.590854, 0.465879, -0.0972799, -0.782358, -0.398188, -0.387649, -0.498171, 0.31565, -0.30068, -0.587995, -0.388901)

[node name="Player" type="CharacterBody3D"]
script = ExtResource("1_2t6uy")
MovementStates = {
"run": ExtResource("2_14ob0"),
"sprint": ExtResource("3_j8of3"),
"stand": ExtResource("4_t8b6l"),
"walk": ExtResource("5_l0h7h")
}
JumpStates = {
"air_jump": ExtResource("6_v7q6c"),
"ground_jump": ExtResource("7_otcmq")
}
MaxAirJumps = 1

[node name="MeshInstance3D" type="MeshInstance3D" parent="."]
mesh = SubResource("CapsuleMesh_aknpw")

[node name="CollisionShape3D" type="CollisionShape3D" parent="."]
shape = SubResource("ConvexPolygonShape3D_w11nt")

[node name="CamRoot" type="Node3D" parent="."]
transform = Transform3D(1, 0, 0, 0, 1, 0, 0, 0, 1, 0, 0.656604, 0)

[node name="Camera3D" type="Camera3D" parent="CamRoot"]

[node name="CameraController" type="Node" parent="CamRoot" node_paths=PackedStringArray("Head")]
script = ExtResource("6_fv7gu")
Head = NodePath("..")

[node name="MovementController" type="Node" parent="." node_paths=PackedStringArray("Player", "MeshRoot")]
script = ExtResource("5_yxug4")
Player = NodePath("..")
MeshRoot = NodePath("../MeshInstance3D")

[connection signal="PressedJump" from="." to="MovementController" method="Jump"]
[connection signal="SetMovementDirection" from="." to="MovementController" method="OnSetMovementDirection"]
[connection signal="SetMovementState" from="." to="CamRoot/CameraController" method="OnSetMovementState"]
[connection signal="SetMovementState" from="." to="MovementController" method="OnSetMovementState"]
[connection signal="SetCamRotation" from="CamRoot/CameraController" to="MovementController" method="OnSetCamRotation"]
